<?xml version="1.0" encoding="UTF-8" standalone="no"?>
<!-- Created with Inkscape (http://www.inkscape.org/) -->

<svg
   xmlns:dc="http://purl.org/dc/elements/1.1/"
   xmlns:cc="http://creativecommons.org/ns#"
   xmlns:rdf="http://www.w3.org/1999/02/22-rdf-syntax-ns#"
   xmlns:svg="http://www.w3.org/2000/svg"
   xmlns="http://www.w3.org/2000/svg"
   xmlns:sodipodi="http://sodipodi.sourceforge.net/DTD/sodipodi-0.dtd"
   xmlns:inkscape="http://www.inkscape.org/namespaces/inkscape"
   width="512"
   height="512"
   id="svg2"
   version="1.1"
   inkscape:version="0.48.4 r9939"
   sodipodi:docname="icon.svg"
   inkscape:export-filename="/home/alexey/src/android/ContinuousDroid/icon.png"
   inkscape:export-xdpi="25.309999"
   inkscape:export-ydpi="25.309999">
  <defs
     id="defs4" />
  <sodipodi:namedview
     id="base"
     pagecolor="#ffffff"
     bordercolor="#666666"
     borderopacity="1.0"
     inkscape:pageopacity="0.0"
     inkscape:pageshadow="2"
     inkscape:zoom="0.70710678"
     inkscape:cx="217.25434"
     inkscape:cy="149.94594"
     inkscape:document-units="px"
     inkscape:current-layer="layer1"
     showgrid="false"
     inkscape:window-width="1149"
     inkscape:window-height="848"
     inkscape:window-x="291"
     inkscape:window-y="24"
     inkscape:window-maximized="0"
     fit-margin-top="5"
     fit-margin-left="5"
     fit-margin-right="5"
     fit-margin-bottom="5" />
  <metadata
     id="metadata7">
    <rdf:RDF>
      <cc:Work
         rdf:about="">
        <dc:format>image/svg+xml</dc:format>
        <dc:type
           rdf:resource="http://purl.org/dc/dcmitype/StillImage" />
        <dc:title></dc:title>
      </cc:Work>
    </rdf:RDF>
  </metadata>
  <g
     inkscape:label="Layer 1"
     inkscape:groupmode="layer"
     id="layer1"
     transform="translate(0,-540.36218)">
    <rect
       style="color:#000000;fill:#92b83e;fill-opacity:1;fill-rule:nonzero;stroke:#92b83e;stroke-width:0.90860206px;stroke-linecap:butt;stroke-linejoin:miter;stroke-miterlimit:4;stroke-opacity:1;stroke-dasharray:none;stroke-dashoffset:0;marker:none;visibility:visible;display:inline;overflow:visible;enable-background:accumulate"
       id="rect3755"
       width="459.89142"
       height="107.0914"
       x="26.076641"
       y="919.19415" />
    <path
       style="fill:#92b83e;fill-opacity:1;stroke:#92b83e;stroke-width:0.80423778px;stroke-linecap:butt;stroke-linejoin:miter;stroke-opacity:1"
       d="m 26.024459,900.33772 460.397881,0.40212 -64.42234,-334.8 -332,0 z"
       id="path3757"
       inkscape:connector-curvature="0"
       sodipodi:nodetypes="ccccc" />
    <rect
       style="color:#000000;fill:#ffffff;fill-opacity:1;fill-rule:nonzero;stroke:#ffffff;stroke-width:0.86728942px;stroke-linecap:butt;stroke-linejoin:miter;stroke-miterlimit:4;stroke-opacity:1;stroke-dasharray:none;stroke-dashoffset:0;marker:none;visibility:visible;display:inline;overflow:visible;enable-background:accumulate"
       id="rect3759"
       width="107.13271"
       height="44.132713"
       x="332.056"
       y="964.17346" />
  </g>
  <g
     inkscape:groupmode="layer"
     id="layer4"
     inkscape:label="Hammer"
     style="display:inline">
    <path
       style="fill:#ffffff;fill-opacity:1;stroke:#ffffff;stroke-width:1.08000004px;stroke-linecap:butt;stroke-linejoin:miter;stroke-opacity:1;display:inline"
       d="m 182.38886,179.7782 -15.51404,-42.62446 30.44587,-11.08191 c 2.60406,4.93819 7.09929,6.14101 12.45843,5.80983 l 19.90503,-7.24483 c -0.87003,-3.70611 -2.61688,-8.24238 2.51089,-11.25822 17.68045,-6.43516 25.86277,-9.00798 42.22388,-15.080909 17.90495,-6.645972 44.61735,13.734379 58.57122,26.952929 0,0 -7.79302,-1.30633 -11.71291,-1.79003 -6.87086,-0.84786 -13.76473,-2.32529 -20.67738,-1.94741 -5.6676,0.30981 -11.29395,1.63828 -16.67811,3.43509 -1.23432,0.4119 -2.40347,1.01543 -3.53009,1.66653 -3.4952,2.01994 -6.78192,4.40258 -9.94749,6.90773 -2.53897,2.00929 -7.2256,6.49173 -7.2256,6.49173 l 56.66649,154.47736 -25.05912,9.12077 -56.27678,-154.6192 -19.90487,7.2453 c -4.3182,3.19108 -6.98893,7.00106 -5.80955,12.45779 l -30.44587,11.08191 -15.51404,-42.62446"
       id="path3911-9-7-6-2"
       inkscape:connector-curvature="0"
       sodipodi:nodetypes="ccccccscaaaaacccccccc" />
  </g>
  <g
     inkscape:groupmode="layer"
     id="layer2"
     inkscape:label="Hammer_vert"
     style="display:none">
    <path
       style="fill:#92b83e;fill-opacity:1;stroke:#000000;stroke-width:1px;stroke-linecap:butt;stroke-linejoin:miter;stroke-opacity:1"
       d="m 163.38657,163.64645 0,-42 30,-4.5e-4 c 0.7019,5.12132 4.23223,7.59144 9,9.00045 l 19.61343,0 c 0.41667,-3.50015 0.33333,-8.0003 5.75,-9.00045 17.42143,0 25.35551,0.35265 41.51429,0.25 17.68352,-0.11233 34.47145,26.07975 42.4264,42 0,0 -6.3669,-3.60454 -9.62437,-5.26678 -5.70972,-2.9136 -11.24011,-6.38229 -17.37437,-8.24264 -5.02942,-1.52528 -10.34553,-2.15118 -15.59924,-2.29289 -1.2044,-0.0325 -2.41279,0.12238 -3.59924,0.3321 -3.68081,0.65064 -7.29508,1.68289 -10.84274,2.8601 -2.84543,0.94419 -8.34273,3.36011 -8.34273,3.36011 L 246.692,307 222,307 l 0,-152.354 -19.61343,4.5e-4 c -4.76777,1.40901 -8.2981,3.87823 -9,8.99955 l -30,4.5e-4 0,-42"
       id="path3911-9-7-6"
       inkscape:connector-curvature="0"
       sodipodi:nodetypes="ccccccscaaaaacccccccc" />
  </g>
  <g
     inkscape:groupmode="layer"
     id="layer3"
     inkscape:label="Hammer_draft"
     style="display:none">
    <path
       style="fill:none;stroke:#000000;stroke-width:1px;stroke-linecap:butt;stroke-linejoin:miter;stroke-opacity:1"
       d="m 159.19343,206.1555 -22,0 c -4.76777,1.40901 -8.2981,3.87868 -9,9 l -29.999996,0 0,-42"
       id="path3911-9-7-2"
       inkscape:connector-curvature="0"
       sodipodi:nodetypes="ccccc" />
  </g>
</svg>
