<?xml version="1.0" encoding="UTF-8" standalone="no"?>
<!-- Created with Inkscape (http://www.inkscape.org/) -->

<svg
   xmlns:dc="http://purl.org/dc/elements/1.1/"
   xmlns:cc="http://creativecommons.org/ns#"
   xmlns:rdf="http://www.w3.org/1999/02/22-rdf-syntax-ns#"
   xmlns:svg="http://www.w3.org/2000/svg"
   xmlns="http://www.w3.org/2000/svg"
   xmlns:sodipodi="http://sodipodi.sourceforge.net/DTD/sodipodi-0.dtd"
   xmlns:inkscape="http://www.inkscape.org/namespaces/inkscape"
   width="512"
   height="512"
   id="svg4761"
   version="1.1"
   inkscape:version="0.48.4 r9939"
   sodipodi:docname="icon-rect-down.svg"
   inkscape:export-filename="/home/alexey/src/android/ContinuousDroid/icon2.png"
   inkscape:export-xdpi="25"
   inkscape:export-ydpi="25">
  <defs
     id="defs4763" />
  <sodipodi:namedview
     id="base"
     pagecolor="#ffffff"
     bordercolor="#666666"
     borderopacity="1.0"
     inkscape:pageopacity="0.0"
     inkscape:pageshadow="2"
     inkscape:zoom="0.98994949"
     inkscape:cx="317.52367"
     inkscape:cy="312.06447"
     inkscape:document-units="px"
     inkscape:current-layer="layer1"
     showgrid="false"
     inkscape:window-width="1440"
     inkscape:window-height="876"
     inkscape:window-x="0"
     inkscape:window-y="24"
     inkscape:window-maximized="1" />
  <metadata
     id="metadata4766">
    <rdf:RDF>
      <cc:Work
         rdf:about="">
        <dc:format>image/svg+xml</dc:format>
        <dc:type
           rdf:resource="http://purl.org/dc/dcmitype/StillImage" />
        <dc:title></dc:title>
      </cc:Work>
    </rdf:RDF>
  </metadata>
  <g
     inkscape:label="Layer 1"
     inkscape:groupmode="layer"
     id="layer1"
     transform="translate(0,-540.36218)">
    <rect
       style="color:#000000;fill:#92b83e;fill-opacity:1;fill-rule:nonzero;stroke:none;stroke-width:10;marker:none;visibility:visible;display:inline;overflow:visible;enable-background:accumulate"
       id="rect5285"
       width="462"
       height="462"
       x="25"
       y="565.36218"
       rx="50"
       ry="50" />
    <path
       style="fill:#ececec;fill-opacity:1;stroke:#ececec;stroke-width:1.28765821px;stroke-linecap:butt;stroke-linejoin:miter;stroke-opacity:1;display:inline"
       d="m 179.69581,703.33905 0,-59.57324 35.06877,-6.4e-4 c 0.82046,7.26413 4.94725,10.76777 10.52059,12.76633 l 22.92726,0 c 0.48708,-4.96464 0.38968,-11.34772 6.72152,-12.76633 20.36493,0 29.63955,0.5002 48.52847,0.35459 20.67133,-0.15941 40.2957,36.99181 49.59472,59.57325 0,0 -7.44264,-5.11269 -11.25048,-7.47045 -6.67442,-4.13267 -13.13924,-9.05272 -20.30992,-11.69146 -5.8792,-2.16347 -12.09349,-3.05124 -18.23488,-3.25225 -1.40788,-0.0462 -2.82045,0.17362 -4.20736,0.47106 -4.30271,0.92287 -8.52764,2.38703 -12.67471,4.05678 -3.32618,1.33928 -9.75231,4.76604 -9.75231,4.76604 l 0.44887,216.10057 -28.86392,0 0,-216.10057 -22.92726,6.2e-4 c -5.57334,1.99855 -9.70013,5.50094 -10.52059,12.76507 l -35.06877,6.3e-4 0,-59.57324"
       id="path3911-9-7-6"
       inkscape:connector-curvature="0"
       sodipodi:nodetypes="ccccccscaaaaacccccccc" />
    <path
       style="fill:#ececec;fill-opacity:1;stroke:none"
       d="m 178.81243,906.91564 175,0 -90.74074,75.73058 z"
       id="path2998"
       inkscape:connector-curvature="0" />
    <path
       style="fill:#ffffff;stroke:#ececec;stroke-width:10;stroke-linecap:butt;stroke-linejoin:miter;stroke-miterlimit:4;stroke-opacity:1;stroke-dasharray:none"
       d="m 152.00087,997.81394 231.37911,0"
       id="path3768"
       inkscape:connector-curvature="0" />
  </g>
</svg>
